BISC 307, Lab 1A: Ecoclimate & Public Health
…
Sidebar, if you’re not using the server version of R: The first time that you want to use an R package on a computer, you need to install it. To do this lab, you’ll need to runinstall.packages("tidyverse") before proceeding.

library(tidyverse)
library(lubridate)

The next thing that we need to do is load our dataset into R. In Lab 1b we’ll work through an example of how to load data from an external csv file (which is how most data are stored in practice), but for this first lab we’ll work with data that has been pre-formatted in R. To load an .RData file, we use the load() function. You can also do this step by going to File > Open File on the Rstudio top menu bar, and then selecting the .Rdata file to load, but it’s better to do it from the actual code, so that you can save it and all of your steps are reproducible.

# Load .RData file with Boston & Phoenix climate data 
load("data/BOSPHO_climate.RData")

When you load the .RData file, this should create an object in your Rstudio “Environment” panel (usually in the upper right box of Rstudio software) called BOSPHO_climate. BOSPHO_climate is a tibble object; you can see that this tibble has 54,962 rows (observations) and 5 columns (variables). We can take a look at the tibble summary by running:

BOS_climate

## # A tibble: 27,893 x 5
##         station       date  tmax  tmin precip
##           <chr>     <date> <int> <int>  <dbl>
##  1 BOSTON MA US 1941-01-01    39    28   0.00
##  2 BOSTON MA US 1941-01-02    36    24   0.03
##  3 BOSTON MA US 1941-01-03    40    31   0.07
##  4 BOSTON MA US 1941-01-04    39    30   0.85
##  5 BOSTON MA US 1941-01-05    30    21   0.00
##  6 BOSTON MA US 1941-01-06    30    19   0.00
##  7 BOSTON MA US 1941-01-07    30    14   0.00
##  8 BOSTON MA US 1941-01-08    30    14   0.00
##  9 BOSTON MA US 1941-01-09    33    18   0.01
## 10 BOSTON MA US 1941-01-10    33    24   0.00
## # ... with 27,883 more rows
…
