BISC 307, Lab 2B: Photosynthesis & Leaf Traits
…
## See spec(...) for full column specifications.

LCE_global

## # A tibble: 598 x 131
##    index Date   Year   Day Location   Lat   Lon Genus Species   Rep
##    <int> <chr> <int> <int> <chr>    <dbl> <dbl> <chr> <chr>   <int>
##  1     1 5/19…  2015   139 LaSelva   10.4 -84.0 Albi… adinoc…     1
##  2     2 5/21…  2015   141 LaSelva   10.4 -84.0 Alch… costar…     1
##  3     3 5/22…  2015   142 LaSelva   10.4 -84.0 Anno… papili…     1
##  4     4 5/23…  2015   143 LaSelva   10.4 -84.0 Anno… papili…     2
##  5     5 5/23…  2015   143 LaSelva   10.4 -84.0 Anno… papili…     3
##  6     6 5/26…  2015   146 LaSelva   10.4 -84.0 Anno… papili…     4
##  7     7 5/26…  2015   146 LaSelva   10.4 -84.0 Anno… papili…     5
##  8     8 5/26…  2015   146 LaSelva   10.4 -84.0 Anno… papili…     6
##  9     9 5/27…  2015   147 LaSelva   10.4 -84.0 Anno… papili…     7
## 10    10 5/24…  2015   144 LaSelva   10.4 -84.0 Apei… membra…     1
## # ... with 588 more rows, and 121 more variables: Phenology <chr>,
## #   Lifespan <chr>, Photosynthesis <chr>, Stature <chr>, Juvenile <chr>,
## #   Vcmax <dbl>, Jmax <dbl>, Vpmax <dbl>, Rd <dbl>, Tleaf_photo <dbl>,
## #   Tleaf_R <dbl>, LA <dbl>, LM <dbl>, CN <dbl>, Nper <dbl>, Cper <dbl>,
## #   LWP_MPa <dbl>, DBH <dbl>, Height <dbl>, SMper <dbl>, FCper <int>,
## #   Satper <int>, Tavg1 <dbl>, Tavg2 <dbl>, Tavg3 <dbl>, Tavg4 <dbl>,
## #   Tavg5 <dbl>, Tavg6 <dbl>, Tavg7 <dbl>, Tavg8 <dbl>, Tavg9 <dbl>,
## #   Tavg10 <dbl>, Tavg11 <dbl>, Tavg12 <dbl>, Tavg13 <dbl>, Tavg14 <dbl>,
## #   Tavg15 <dbl>, Tavg16 <dbl>, Tavg17 <dbl>, Tavg18 <dbl>, Tavg19 <dbl>,
…
