BISC 307, Lab 1b: Ecoclimate & Public Health
…
To load a csv file into Rstudio, we’ll use the read_csv() function from the tidyverse. R also has a base function called read.csv() that doesn’t require the tidyverse package, but read_csv() has a few advantages over the base function. Helpfully, read_csv() preserves data classes, recognizes dates and times, and automatically loads data as tibbles (rather than data frames).

To read a data file into R, you need to know how to tell R where to find it. Computers store files in directories (i.e., folders) that are organized hierarchically. By listing the directory path to the file you want to use, you can give R directions on how to find it. Within Rstudio, you set a working directory, which is the starting point of where R will start to look for your files. The best thing to do in this class is to make the unzipped lab folder for each week a separate directory (folder), for example BISC307_Lab1b, and then to make that folder your working directory for that lab session.

In R, you can set your working directory a few different ways:

In the Files panel in the lower right windowpane of Rstudio, navigate to the directory that you want to be your working directory and go inside that folder. Click More within the Files panel, then Set As Working Directory.

On the top Rstudio menu bar, click Session then Set Working Directory then you can either choose your working directory or set it To Source File Location, which should work for our labs.

You can use the setwd() function in the Console window with the path to your working directory written inside the function surrounded by ' '.

The IETs dataset is comprised of five csv files, and you can read more about each file in the metadata within the IET_metadata.txt file included in the data/ directory of the .zip folder for this week. The metadata contains important information that is necessary for interpreting the data, for example the meaning of column names, units for numeric values, etc. These first exercises will only work with two of the csv files from this dataset - the main IET dataset and the background participant survey - but you can use the other files, if you’d like, for your independent investigation at the end of lab. For now, let’s load the two csv files that we’ll be working with.

## # A tibble: 3,360 x 3
##    `Subject ID`        period temperature
##           <chr>         <chr>       <dbl>
##  1           1A Sat, 8pm-12am    25.14447
##  2           1P Sat, 8pm-12am    26.77962
##  3           1E Sat, 8pm-12am    27.21875
##  4           1B Sat, 8pm-12am    26.79175
##  5           2N Sat, 8pm-12am          NA
##  6           3A Sat, 8pm-12am          NA
##  7           1T Sat, 8pm-12am    26.90625
##  8           1C Sat, 8pm-12am    28.67713
##  9           1D Sat, 8pm-12am    32.72525
## 10           1G Sat, 8pm-12am    26.72919
## # ... with 3,350 more rows

## # A tibble: 80 x 29
##    `Subject ID`  a_q1  a_q2 a_q3a a_q3b  a_q4  a_q5  a_q6 a_q7a a_q7b
##           <chr> <int> <int> <int> <int> <int> <int> <int> <int> <int>
##  1           1A     2    NA     3     0    14     1     1     2     1
##  2           1P    NA    NA    NA    NA    NA    NA    NA    NA    NA
##  3           1E     4     2     3     0    14     5     2     2    NA
##  4           1B    NA    NA    NA    NA    NA    NA    NA    NA    NA
##  5           2N     3     2     1     0    15     5     8     1    NA
##  6           3A     3     1     5     0     2     5     2     2    NA
##  7           1T    NA    NA    NA    NA    NA    NA    NA    NA    NA
##  8           1C     3     1     1     0    15     2     1    NA     1
##  9           1D     2     2     3     0    14     1     1    NA     1
## 10           1G     3     2     6     0    14     1     1     2    NA
## # ... with 70 more rows, and 19 more variables: a_q8 <int>, a_q9 <int>,
## #   a_q10 <dbl>, a_q11 <int>, a_q12 <int>, a_q13a <int>, a_q13b <int>,
## #   a_q13c <int>, a_q14 <dbl>, a_q15 <int>, a_q16 <dbl>, a_q17 <int>,
## #   a_q18 <dbl>, a_q19 <int>, a_q20 <int>, a_q21 <int>, a_q22 <int>,
## #   a_q23 <int>, a_q24 <int>
…
The first thing that we’ll do is examine the differences in IETs grouped by neighborhood. To do this, we’ll need to start using the tidyverse Data Transformation verbs to get the data in the right format that we’d like. Remember that the IETs column for Subject ID has the neighborhood attached, but also the participant ID within each neighborhood. If we want to group things by neighborhood, we need to use mutate() to create a new column with just neighborhood, and while we’re at it, we’ll also create a new column with just ID.

To separate out the neighborhood piece of the Subject ID from the letter that IDs each subject, we’ll use a function called substring - str_sub() from the stringr tidyverse package - that clips a string based on the numeric order of letters within that string. For example, the Subject ID string in the first row of the IETs tibble is 1A, where we want to clip out the first character 1 into the new neighborhood column and the second character A into the new ID column.

We’ll use these stringr functions in this lab, but you shouldn’t worry about understanding all the details: the main point of this lab is to focus on the use of the data transformation verbs, but we can’t avoid having to clean things up with stringr in order to use this dataset. Remember that learning R is like learning a new language, and you can think about the stringr commands in this lab as an immersion experience where you might not understand every detail, but can focus on the purpose of how these functions are helping us with the key Data Transformation verbs.

# Make a new tibble with columns for neighborhood and ID
IETs_nbh <- mutate(IETs, neighborhood = str_sub(`Subject ID`,1,1), 
                 ID = str_sub(`Subject ID`,2,2))

# Look at the new tibble
IETs_nbh

## # A tibble: 3,360 x 5
##    `Subject ID`        period temperature neighborhood    ID
##           <chr>         <chr>       <dbl>        <chr> <chr>
##  1           1A Sat, 8pm-12am    25.14447            1     A
##  2           1P Sat, 8pm-12am    26.77962            1     P
##  3           1E Sat, 8pm-12am    27.21875            1     E
##  4           1B Sat, 8pm-12am    26.79175            1     B
##  5           2N Sat, 8pm-12am          NA            2     N
##  6           3A Sat, 8pm-12am          NA            3     A
##  7           1T Sat, 8pm-12am    26.90625            1     T
##  8           1C Sat, 8pm-12am    28.67713            1     C
##  9           1D Sat, 8pm-12am    32.72525            1     D
## 10           1G Sat, 8pm-12am    26.72919            1     G
## # ... with 3,350 more rows
…
This plot is interesting and it sort of looks like the IETs from neighborhood 5 are lower than those from the other neighborhoods. However, this plot summarizes the data across all times of day, which might be introducing much more varibility into the range within each neighborhood.

To get a closer look at differences in IETs by time of day, let’s summarize the data within each time period (i.e., 12am-4am, 4am-8am, etc.) as well. To do this, we’ll need to use mutate() again to grab the time period strings from the period column of the IETs_nbh dataset, since they’re also attached to the day of the week. We’ll again use mutate(), this time with the function str_split_fixed() from the stringr package to separate the period strings into day of week (dow) and hours (hrs) columns at the “comma and space” within each string.

# Make new columns for day of week (dow), time period (hrs), and am/pm (ampm)
IETs_nbh_time <- mutate(IETs_nbh, 
                 dow = str_split_fixed(period, ", ", n = 2)[,1],
                 hrs = str_split_fixed(period, ", ", n = 2)[,2])

# Look at the new tibble
IETs_nbh_time

## # A tibble: 3,360 x 7
##    `Subject ID`        period temperature neighborhood    ID   dow
##           <chr>         <chr>       <dbl>        <chr> <chr> <chr>
##  1           1A Sat, 8pm-12am    25.14447            1     A   Sat
##  2           1P Sat, 8pm-12am    26.77962            1     P   Sat
##  3           1E Sat, 8pm-12am    27.21875            1     E   Sat
##  4           1B Sat, 8pm-12am    26.79175            1     B   Sat
##  5           2N Sat, 8pm-12am          NA            2     N   Sat
##  6           3A Sat, 8pm-12am          NA            3     A   Sat
##  7           1T Sat, 8pm-12am    26.90625            1     T   Sat
##  8           1C Sat, 8pm-12am    28.67713            1     C   Sat
##  9           1D Sat, 8pm-12am    32.72525            1     D   Sat
## 10           1G Sat, 8pm-12am    26.72919            1     G   Sat
## # ... with 3,350 more rows, and 1 more variables: hrs <chr>
…
# Arrange tibble to find the warmest time period & neighborhood
IETs_sum_sort <- arrange(IETs_nbh_time_sum, desc(Tmean))

# Look at tibble
IETs_sum_sort

## # A tibble: 30 x 5
## # Groups:   neighborhood [5]
##    neighborhood      hrs    Tmean      Tsd count
##           <chr>    <chr>    <dbl>    <dbl> <int>
##  1            4 12pm-4pm 29.26638 2.493471   133
##  2            3  4pm-8pm 29.18841 2.598879   140
##  3            1  4pm-8pm 29.16179 2.791682    77
##  4            4  4pm-8pm 29.07707 2.230465   133
##  5            1 12pm-4pm 28.99004 2.859524    77
##  6            3 12pm-4pm 28.87804 3.222353   140
##  7            2 12pm-4pm 28.48892 2.408045   133
##  8            2  4pm-8pm 28.36537 2.324875   133
##  9            1 8am-12pm 28.34323 2.828216    77
## 10            4 8am-12pm 28.20887 2.163564   133
## # ... with 20 more rows
…
